keypad_driver/vcd_shift_register.vcd
$date
  Thu Nov 17 12:20:31 2022
$end
$version
  GHDL v0
$end
$timescale
  1 fs
$end
$scope module standard $end
$upscope $end
$scope module std_logic_1164 $end
$upscope $end
$scope module numeric_std $end
$upscope $end
$scope module shift_register_tb $end
$var reg 5 ! value[4:0] $end
$var reg 1 " clock $end
$var reg 8 # digits[7:0] $end
$scope module dut $end
$var reg 1 $ clock $end
$var reg 5 % value[4:0] $end
$var reg 8 & digits[7:0] $end
$var reg 1 ' locked $end
$var reg 8 ( aux[7:0] $end
$var integer 32 ) count $end
$var reg 1 * flag $end
$upscope $end
$upscope $end
$enddefinitions $end
#0
b01111 !
0"
bUUUUUUUU #
0$
b01111 %
bUUUUUUUU &
0'
bUUUUUUUU (
b0 )
0*
#4000000
1"
b1111UUUU #
1$
b1111UUUU &
1'
b1111UUUU (
b11111010 )
1*
#8000000
0"
0$
#10000000
b1XXXX !
b1XXXX %
#12000000
1"
1$
b11111001 )
#16000000
0"
0$
#20000000
1"
1$
b11111000 )
#24000000
0"
0$
#28000000
1"
1$
b11110111 )
#32000000
0"
0$
#36000000
1"
1$
b11110110 )
#40000000
0"
0$
#44000000
1"
1$
b11110101 )
#48000000
0"
0$
#52000000
1"
1$
b11110100 )
#56000000
0"
0$
#60000000
1"
1$
b11110011 )
#64000000
0"
0$
#68000000
1"
1$
b11110010 )
#72000000
0"
0$
#76000000
1"
1$
b11110001 )
#80000000
0"
0$
#84000000
1"
1$
b11110000 )
#88000000
0"
0$
#92000000
1"
1$
b11101111 )
#96000000
0"
0$
#100000000
1"
1$
b11101110 )
#104000000
0"
0$
#108000000
1"
1$
b11101101 )
#112000000
0"
0$
#116000000
1"
1$
b11101100 )
#120000000
0"
0$
#124000000
1"
1$
b11101011 )
#128000000
0"
0$
#132000000
1"
1$
b11101010 )
#136000000
0"
0$
#140000000
1"
1$
b11101001 )
#144000000
0"
0$
#148000000
1"
1$
b11101000 )
#152000000
0"
0$
#156000000
1"
1$
b11100111 )
#160000000
0"
0$
#164000000
1"
1$
b11100110 )
#168000000
0"
0$
#172000000
1"
1$
b11100101 )
#176000000
0"
0$
#180000000
1"
1$
b11100100 )
#184000000
0"
0$
#188000000
1"
1$
b11100011 )
#192000000
0"
0$
#196000000
1"
1$
b11100010 )
#200000000
0"
0$
#204000000
1"
1$
b11100001 )
#208000000
0"
0$
#212000000
1"
1$
b11100000 )
#216000000
0"
0$
#220000000
1"
1$
b11011111 )
#224000000
0"
0$
#228000000
1"
1$
b11011110 )
#232000000
0"
0$
#236000000
1"
1$
b11011101 )
#240000000
0"
0$
#244000000
1"
1$
b11011100 )
#248000000
0"
0$
#252000000
1"
1$
b11011011 )
#256000000
0"
0$
#260000000
1"
1$
b11011010 )
#264000000
0"
0$
#268000000
1"
1$
b11011001 )
#272000000
0"
0$
#276000000
1"
1$
b11011000 )
#280000000
0"
0$
#284000000
1"
1$
b11010111 )
#288000000
0"
0$
#292000000
1"
1$
b11010110 )
#296000000
0"
0$
#300000000
1"
1$
b11010101 )
#304000000
0"
0$
#308000000
1"
1$
b11010100 )
#312000000
0"
0$
#316000000
1"
1$
b11010011 )
#320000000
0"
0$
#324000000
1"
1$
b11010010 )
#328000000
0"
0$
#332000000
1"
1$
b11010001 )
#336000000
0"
0$
#340000000
1"
1$
b11010000 )
#344000000
0"
0$
#348000000
1"
1$
b11001111 )
#352000000
0"
0$
#356000000
1"
1$
b11001110 )
#360000000
0"
0$
#364000000
1"
1$
b11001101 )
#368000000
0"
0$
#372000000
1"
1$
b11001100 )
#376000000
0"
0$
#380000000
1"
1$
b11001011 )
#384000000
0"
0$
#388000000
1"
1$
b11001010 )
#392000000
0"
0$
#396000000
1"
1$
b11001001 )
#400000000
0"
0$
#404000000
1"
1$
b11001000 )
#408000000
0"
0$
#412000000
1"
1$
b11000111 )
#416000000
0"
0$
#420000000
1"
1$
b11000110 )
#424000000
0"
0$
#428000000
1"
1$
b11000101 )
#432000000
0"
0$
#436000000
1"
1$
b11000100 )
#440000000
0"
0$
#444000000
1"
1$
b11000011 )
#448000000
0"
0$
#452000000
1"
1$
b11000010 )
#456000000
0"
0$
#460000000
1"
1$
b11000001 )
#464000000
0"
0$
#468000000
1"
1$
b11000000 )
#472000000
0"
0$
#476000000
1"
1$
b10111111 )
#480000000
0"
0$
#484000000
1"
1$
b10111110 )
#488000000
0"
0$
#492000000
1"
1$
b10111101 )
#496000000
0"
0$
#500000000
1"
1$
b10111100 )
#504000000
0"
0$
#508000000
1"
1$
b10111011 )
#512000000
0"
0$
#516000000
1"
1$
b10111010 )
#520000000
0"
0$
#524000000
1"
1$
b10111001 )
#528000000
0"
0$
#532000000
1"
1$
b10111000 )
#536000000
0"
0$
#540000000
1"
1$
b10110111 )
#544000000
0"
0$
#548000000
1"
1$
b10110110 )
#552000000
0"
0$
#556000000
1"
1$
b10110101 )
#560000000
0"
0$
#564000000
1"
1$
b10110100 )
#568000000
0"
0$
#572000000
1"
1$
b10110011 )
#576000000
0"
0$
#580000000
1"
1$
b10110010 )
#584000000
0"
0$
#588000000
1"
1$
b10110001 )
#592000000
0"
0$
#596000000
1"
1$
b10110000 )
#600000000
0"
0$
#604000000
1"
1$
b10101111 )
#608000000
0"
0$
#612000000
1"
1$
b10101110 )
#616000000
0"
0$
#620000000
1"
1$
b10101101 )
#624000000
0"
0$
#628000000
1"
1$
b10101100 )
#632000000
0"
0$
#636000000
1"
1$
b10101011 )
#640000000
0"
0$
#644000000
1"
1$
b10101010 )
#648000000
0"
0$
#652000000
1"
1$
b10101001 )
#656000000
0"
0$
#660000000
1"
1$
b10101000 )
#664000000
0"
0$
#668000000
1"
1$
b10100111 )
#672000000
0"
0$
#676000000
1"
1$
b10100110 )
#680000000
0"
0$
#684000000
1"
1$
b10100101 )
#688000000
0"
0$
#692000000
1"
1$
b10100100 )
#696000000
0"
0$
#700000000
1"
1$
b10100011 )
#704000000
0"
0$
#708000000
1"
1$
b10100010 )
#712000000
0"
0$
#716000000
1"
1$
b10100001 )
#720000000
0"
0$
#724000000
1"
1$
b10100000 )
#728000000
0"
0$
#732000000
1"
1$
b10011111 )
#736000000
0"
0$
#740000000
1"
1$
b10011110 )
#744000000
0"
0$
#748000000
1"
1$
b10011101 )
#752000000
0"
0$
#756000000
1"
1$
b10011100 )
#760000000
0"
0$
#764000000
1"
1$
b10011011 )
#768000000
0"
0$
#772000000
1"
1$
b10011010 )
#776000000
0"
0$
#780000000
1"
1$
b10011001 )
#784000000
0"
0$
#788000000
1"
1$
b10011000 )
#792000000
0"
0$
#796000000
1"
1$
b10010111 )
#800000000
0"
0$
#804000000
1"
1$
b10010110 )
#808000000
0"
0$
#812000000
1"
1$
b10010101 )
#816000000
0"
0$
#820000000
1"
1$
b10010100 )
#824000000
0"
0$
#828000000
1"
1$
b10010011 )
#832000000
0"
0$
#836000000
1"
1$
b10010010 )
#840000000
0"
0$
#844000000
1"
1$
b10010001 )
#848000000
0"
0$
#852000000
1"
1$
b10010000 )
#856000000
0"
0$
#860000000
1"
1$
b10001111 )
#864000000
0"
0$
#868000000
1"
1$
b10001110 )
#872000000
0"
0$
#876000000
1"
1$
b10001101 )
#880000000
0"
0$
#884000000
1"
1$
b10001100 )
#888000000
0"
0$
#892000000
1"
1$
b10001011 )
#896000000
0"
0$
#900000000
1"
1$
b10001010 )
#904000000
0"
0$
#908000000
1"
1$
b10001001 )
#912000000
0"
0$
#916000000
1"
1$
b10001000 )
#920000000
0"
0$
#924000000
1"
1$
b10000111 )
#928000000
0"
0$
#932000000
1"
1$
b10000110 )
#936000000
0"
0$
#940000000
1"
1$
b10000101 )
#944000000
0"
0$
#948000000
1"
1$
b10000100 )
#952000000
0"
0$
#956000000
1"
1$
b10000011 )
#960000000
0"
0$
#964000000
1"
1$
b10000010 )
#968000000
0"
0$
#972000000
1"
1$
b10000001 )
#976000000
0"
0$
#980000000
1"
1$
b10000000 )
#984000000
0"
0$
#988000000
1"
1$
b1111111 )
#992000000
0"
0$
#996000000
1"
1$
b1111110 )
#1000000000
0"
0$
#1004000000
1"
1$
b1111101 )
#1008000000
0"
0$
#1012000000
1"
1$
b1111100 )
#1016000000
0"
0$
#1020000000
1"
1$
b1111011 )
#1024000000
0"
0$
#1028000000
1"
1$
b1111010 )
#1032000000
0"
0$
#1036000000
1"
1$
b1111001 )
#1040000000
0"
0$
#1044000000
1"
1$
b1111000 )
#1048000000
0"
0$
#1052000000
1"
1$
b1110111 )
#1056000000
0"
0$
#1060000000
1"
1$
b1110110 )
#1064000000
0"
0$
#1068000000
1"
1$
b1110101 )
#1072000000
0"
0$
#1076000000
1"
1$
b1110100 )
#1080000000
0"
0$
#1084000000
1"
1$
b1110011 )
#1088000000
0"
0$
#1092000000
1"
1$
b1110010 )
#1096000000
0"
0$
#1100000000
1"
1$
b1110001 )
#1104000000
0"
0$
#1108000000
1"
1$
b1110000 )
#1112000000
0"
0$
#1116000000
1"
1$
b1101111 )
#1120000000
0"
0$
#1124000000
1"
1$
b1101110 )
#1128000000
0"
0$
#1132000000
1"
1$
b1101101 )
#1136000000
0"
0$
#1140000000
1"
1$
b1101100 )
#1144000000
0"
0$
#1148000000
1"
1$
b1101011 )
#1152000000
0"
0$
#1156000000
1"
1$
b1101010 )
#1160000000
0"
0$
#1164000000
1"
1$
b1101001 )
#1168000000
0"
0$
#1172000000
1"
1$
b1101000 )
#1176000000
0"
0$
#1180000000
1"
1$
b1100111 )
#1184000000
0"
0$
#1188000000
1"
1$
b1100110 )
#1192000000
0"
0$
#1196000000
1"
1$
b1100101 )
#1200000000
0"
0$
#1204000000
1"
1$
b1100100 )
#1208000000
0"
0$
#1212000000
1"
1$
b1100011 )
#1216000000
0"
0$
#1220000000
1"
1$
b1100010 )
#1224000000
0"
0$
#1228000000
1"
1$
b1100001 )
#1232000000
0"
0$
#1236000000
1"
1$
b1100000 )
#1240000000
0"
0$
#1244000000
1"
1$
b1011111 )
#1248000000
0"
0$
#1252000000
1"
1$
b1011110 )
#1256000000
0"
0$
#1260000000
1"
1$
b1011101 )
#1264000000
0"
0$
#1268000000
1"
1$
b1011100 )
#1272000000
0"
0$
#1276000000
1"
1$
b1011011 )
#1280000000
0"
0$
#1284000000
1"
1$
b1011010 )
#1288000000
0"
0$
#1292000000
1"
1$
b1011001 )
#1296000000
0"
0$
#1300000000
1"
1$
b1011000 )
#1304000000
0"
0$
#1308000000
1"
1$
b1010111 )
#1312000000
0"
0$
#1316000000
1"
1$
b1010110 )
#1320000000
0"
0$
#1324000000
1"
1$
b1010101 )
#1328000000
0"
0$
#1332000000
1"
1$
b1010100 )
#1336000000
0"
0$
#1340000000
1"
1$
b1010011 )
#1344000000
0"
0$
#1348000000
1"
1$
b1010010 )
#1352000000
0"
0$
#1356000000
1"
1$
b1010001 )
#1360000000
0"
0$
#1364000000
1"
1$
b1010000 )
#1368000000
0"
0$
#1372000000
1"
1$
b1001111 )
#1376000000
0"
0$
#1380000000
1"
1$
b1001110 )
#1384000000
0"
0$
#1388000000
1"
1$
b1001101 )
#1392000000
0"
0$
#1396000000
1"
1$
b1001100 )
#1400000000
0"
0$
#1404000000
1"
1$
b1001011 )
#1408000000
0"
0$
#1412000000
1"
1$
b1001010 )
#1416000000
0"
0$
#1420000000
1"
1$
b1001001 )
#1424000000
0"
0$
#1428000000
1"
1$
b1001000 )
#1432000000
0"
0$
#1436000000
1"
1$
b1000111 )
#1440000000
0"
0$
#1444000000
1"
1$
b1000110 )
#1448000000
0"
0$
#1452000000
1"
1$
b1000101 )
#1456000000
0"
0$
#1460000000
1"
1$
b1000100 )
#1464000000
0"
0$
#1468000000
1"
1$
b1000011 )
#1472000000
0"
0$
#1476000000
1"
1$
b1000010 )
#1480000000
0"
0$
#1484000000
1"
1$
b1000001 )
#1488000000
0"
0$
#1492000000
1"
1$
b1000000 )
#1496000000
0"
0$
#1500000000
1"
1$
b111111 )
#1504000000
0"
0$
#1508000000
1"
1$
b111110 )
#1512000000
0"
0$
#1516000000
1"
1$
b111101 )
#1520000000
0"
0$
#1524000000
1"
1$
b111100 )
#1528000000
0"
0$
#1532000000
1"
1$
b111011 )
#1536000000
0"
0$
#1540000000
1"
1$
b111010 )
#1544000000
0"
0$
#1548000000
1"
1$
b111001 )
#1552000000
0"
0$
#1556000000
1"
1$
b111000 )
#1560000000
0"
0$
#1564000000
1"
1$
b110111 )
#1568000000
0"
0$
#1572000000
1"
1$
b110110 )
#1576000000
0"
0$
#1580000000
1"
1$
b110101 )
#1584000000
0"
0$
#1588000000
1"
1$
b110100 )
#1592000000
0"
0$
#1596000000
1"
1$
b110011 )
#1600000000
0"
0$
#1604000000
1"
1$
b110010 )
#1608000000
0"
0$
#1612000000
1"
1$
b110001 )
#1616000000
0"
0$
#1620000000
1"
1$
b110000 )
#1624000000
0"
0$
#1628000000
1"
1$
b101111 )
#1632000000
0"
0$
#1636000000
1"
1$
b101110 )
#1640000000
0"
0$
#1644000000
1"
1$
b101101 )
#1648000000
0"
0$
#1652000000
1"
1$
b101100 )
#1656000000
0"
0$
#1660000000
1"
1$
b101011 )
#1664000000
0"
0$
#1668000000
1"
1$
b101010 )
#1672000000
0"
0$
#1676000000
1"
1$
b101001 )
#1680000000
0"
0$
#1684000000
1"
1$
b101000 )
#1688000000
0"
0$
#1692000000
1"
1$
b100111 )
#1696000000
0"
0$
#1700000000
1"
1$
b100110 )
#1704000000
0"
0$
#1708000000
1"
1$
b100101 )
#1712000000
0"
0$
#1716000000
1"
1$
b100100 )
#1720000000
0"
0$
#1724000000
1"
1$
b100011 )
#1728000000
0"
0$
#1732000000
1"
1$
b100010 )
#1736000000
0"
0$
#1740000000
1"
1$
b100001 )
#1744000000
0"
0$
#1748000000
1"
1$
b100000 )
#1752000000
0"
0$
#1756000000
1"
1$
b11111 )
#1760000000
0"
0$
#1764000000
1"
1$
b11110 )
#1768000000
0"
0$
#1772000000
1"
1$
b11101 )
#1776000000
0"
0$
#1780000000
1"
1$
b11100 )
#1784000000
0"
0$
#1788000000
1"
1$
b11011 )
#1792000000
0"
0$
#1796000000
1"
1$
b11010 )
#1800000000
0"
0$
#1804000000
1"
1$
b11001 )
#1808000000
0"
0$
#1812000000
1"
1$
b11000 )
#1816000000
0"
0$
#1820000000
1"
1$
b10111 )
#1824000000
0"
0$
#1828000000
1"
1$
b10110 )
#1832000000
0"
0$
#1836000000
1"
1$
b10101 )
#1840000000
0"
0$
#1844000000
1"
1$
b10100 )
#1848000000
0"
0$
#1852000000
1"
1$
b10011 )
#1856000000
0"
0$
#1860000000
1"
1$
b10010 )
#1864000000
0"
0$
#1868000000
1"
1$
b10001 )
#1872000000
0"
0$
#1876000000
1"
1$
b10000 )
#1880000000
0"
0$
#1884000000
1"
1$
b1111 )
#1888000000
0"
0$
#1892000000
1"
1$
b1110 )
#1896000000
0"
0$
#1900000000
1"
1$
b1101 )
#1904000000
0"
0$
#1908000000
1"
1$
b1100 )
#1912000000
0"
0$
#1916000000
1"
1$
b1011 )
#1920000000
0"
0$
#1924000000
1"
1$
b1010 )
#1928000000
0"
0$
#1932000000
1"
1$
b1001 )
#1936000000
0"
0$
#1940000000
1"
1$
b1000 )
#1944000000
0"
0$
#1948000000
1"
1$
b111 )
#1952000000
0"
0$
#1956000000
1"
1$
b110 )
#1960000000
0"
0$
#1964000000
1"
1$
b101 )
#1968000000
0"
0$
#1972000000
1"
1$
b100 )
#1976000000
0"
0$
#1980000000
1"
1$
b11 )
#1984000000
0"
0$
#1988000000
1"
1$
b10 )
#1992000000
0"
0$
#1996000000
1"
1$
b1 )
#2000000000
0"
0$
#2004000000
1"
1$
b0 )
#2008000000
0"
0$
#2012000000
1"
1$
0'
0*
