blinky/blinky.vcd
$date
  Thu Oct 20 15:39:43 2022
$end
$version
  GHDL v0
$end
$timescale
  1 fs
$end
$scope module standard $end
$upscope $end
$scope module std_logic_1164 $end
$upscope $end
$scope module blinky_tb $end
$var reg 1 ! blink $end
$var reg 1 " led $end
$scope module dut $end
$var reg 1 # blink $end
$var reg 1 $ led $end
$upscope $end
$upscope $end
$enddefinitions $end
#0
0!
0"
0#
0$
#500000000000000
1!
1"
1#
1$
#1000000000000000
0!
0"
0#
0$
#1500000000000000
1!
1"
1#
1$
#2000000000000000
0!
0"
0#
0$
#2500000000000000
1!
1"
1#
1$
#3000000000000000
0!
0"
0#
0$
#3500000000000000
1!
1"
1#
1$
#4000000000000000
0!
0"
0#
0$
#4500000000000000
1!
1"
1#
1$
#5000000000000000
0!
0"
0#
0$
#5500000000000000
1!
1"
1#
1$
#6000000000000000
0!
0"
0#
0$
#6500000000000000
1!
1"
1#
1$
#7000000000000000
0!
0"
0#
0$
#7500000000000000
1!
1"
1#
1$
#8000000000000000
0!
0"
0#
0$
#8500000000000000
1!
1"
1#
1$
#9000000000000000
0!
0"
0#
0$
#9500000000000000
1!
1"
1#
1$
#10000000000000000
0!
0"
0#
0$
#10500000000000000
1!
1"
1#
1$
#11000000000000000
0!
0"
0#
0$
#11500000000000000
1!
1"
1#
1$
#12000000000000000
0!
0"
0#
0$
#12500000000000000
1!
1"
1#
1$
#13000000000000000
0!
0"
0#
0$
#13500000000000000
1!
1"
1#
1$
#14000000000000000
0!
0"
0#
0$
#14500000000000000
1!
1"
1#
1$
#15000000000000000
0!
0"
0#
0$
#15500000000000000
1!
1"
1#
1$
#16000000000000000
0!
0"
0#
0$
#16500000000000000
1!
1"
1#
1$
#17000000000000000
0!
0"
0#
0$
#17500000000000000
1!
1"
1#
1$
#18000000000000000
0!
0"
0#
0$
#18500000000000000
1!
1"
1#
1$
#19000000000000000
0!
0"
0#
0$
#19500000000000000
1!
1"
1#
1$
#20000000000000000
0!
0"
0#
0$
